{
    "key": "group_5409de8b488f4",
    "title": "Layouts",
    "fields": [
        {
            "key": "field_5409d668d395b",
            "label": "Layout",
            "name": "layout",
            "type": "flexible_content",
            "instructions": "",
            "required": 0,
            "conditional_logic": 0,
            "wrapper": {
                "width": "",
                "class": "",
                "id": ""
            },
            "layouts": {
                "5412c2812a2f5": {
                    "key": "5412c2812a2f5",
                    "name": "wysiwygs",
                    "label": "WYSIWYGs",
                    "display": "block",
                    "sub_fields": [
                        {
                            "key": "field_5412c28a2a2f6",
                            "label": "Overskrift",
                            "name": "header",
                            "type": "text",
                            "instructions": "",
                            "required": 0,
                            "conditional_logic": 0,
                            "wrapper": {
                                "width": "",
                                "class": "",
                                "id": ""
                            },
                            "default_value": "",
                            "placeholder": "",
                            "prepend": "",
                            "append": "",
                            "maxlength": ""
                        },
                        {
                            "key": "field_5412ce61ab045",
                            "label": "Offset",
                            "name": "offset",
                            "type": "radio",
                            "instructions": "",
                            "required": 0,
                            "conditional_logic": 0,
                            "wrapper": {
                                "width": "",
                                "class": "",
                                "id": ""
                            },
                            "choices": {
                                "Flexible": "Flexible",
                                "2 to 1": "2 to 1",
                                "1 to 2": "1 to 2"
                            },
                            "allow_null": 0,
                            "other_choice": 0,
                            "default_value": "",
                            "layout": "vertical",
                            "return_format": "value",
                            "save_other_choice": 0
                        },
                        {
                            "key": "field_5b9fa68225296",
                            "label": "Baggrundsfarve",
                            "name": "bg",
                            "type": "select",
                            "instructions": "",
                            "required": 0,
                            "conditional_logic": 0,
                            "wrapper": {
                                "width": "33.3",
                                "class": "",
                                "id": ""
                            },
                            "choices": {
                                "none": "Ingen"
                            },
                            "default_value": [
                                "none"
                            ],
                            "allow_null": 0,
                            "multiple": 0,
                            "ui": 0,
                            "return_format": "value",
                            "ajax": 0,
                            "placeholder": ""
                        },
                        {
                            "key": "field_5b9fa6f98efcb",
                            "label": "Margin",
                            "name": "margin",
                            "type": "select",
                            "instructions": "Vælg om sektionen skal have margin i top, bund, begge eller ingen.",
                            "required": 0,
                            "conditional_logic": 0,
                            "wrapper": {
                                "width": "33.3",
                                "class": "",
                                "id": ""
                            },
                            "choices": {
                                "none": "Ingen",
                                "top": "Top",
                                "bottom": "Bund",
                                "both": "Begge"
                            },
                            "default_value": [
                                "none"
                            ],
                            "allow_null": 0,
                            "multiple": 0,
                            "ui": 0,
                            "return_format": "value",
                            "ajax": 0,
                            "placeholder": ""
                        },
                        {
                            "key": "field_5cb6157ed77c1",
                            "label": "Border",
                            "name": "border",
                            "type": "select",
                            "instructions": "Vælg om sektionen skal have border i top, bund, begge eller ingen.",
                            "required": 0,
                            "conditional_logic": 0,
                            "wrapper": {
                                "width": "33.3",
                                "class": "",
                                "id": ""
                            },
                            "choices": {
                                "none": "Ingen",
                                "top": "Top",
                                "bottom": "Bund",
                                "both": "Begge"
                            },
                            "default_value": [
                                "none"
                            ],
                            "allow_null": 0,
                            "multiple": 0,
                            "ui": 0,
                            "return_format": "value",
                            "ajax": 0,
                            "placeholder": ""
                        },
                        {
                            "key": "field_5412c2c02a2f7",
                            "label": "WYSIWYGs",
                            "name": "wysiwygs",
                            "type": "repeater",
                            "instructions": "",
                            "required": 0,
                            "conditional_logic": 0,
                            "wrapper": {
                                "width": "",
                                "class": "",
                                "id": ""
                            },
                            "collapsed": "",
                            "min": 0,
                            "max": 0,
                            "layout": "table",
                            "button_label": "Tilføj WYSIWYG's",
                            "sub_fields": [
                                {
                                    "key": "field_5412c2da2a2f8",
                                    "label": "WYSIWYG",
                                    "name": "wysiwyg",
                                    "type": "wysiwyg",
                                    "instructions": "",
                                    "required": 0,
                                    "conditional_logic": 0,
                                    "wrapper": {
                                        "width": "",
                                        "class": "",
                                        "id": ""
                                    },
                                    "default_value": "",
                                    "tabs": "all",
                                    "toolbar": "full",
                                    "media_upload": 1,
                                    "delay": 0
                                }
                            ]
                        }
                    ],
                    "min": "",
                    "max": ""
                },
                "layout_5ba0a94143236": {
                    "key": "layout_5ba0a94143236",
                    "name": "link-boxes",
                    "label": "Solutions",
                    "display": "block",
                    "sub_fields": [
                        {
                            "key": "field_5ba0a9f94323e",
                            "label": "Sektions indstillinger",
                            "name": "",
                            "type": "tab",
                            "instructions": "",
                            "required": 0,
                            "conditional_logic": 0,
                            "wrapper": {
                                "width": "",
                                "class": "",
                                "id": ""
                            },
                            "placement": "top",
                            "endpoint": 0
                        },
                        {
                            "key": "field_5ba0a94143237",
                            "label": "Overskrift",
                            "name": "header",
                            "type": "text",
                            "instructions": "",
                            "required": 0,
                            "conditional_logic": 0,
                            "wrapper": {
                                "width": "",
                                "class": "",
                                "id": ""
                            },
                            "default_value": "",
                            "placeholder": "",
                            "prepend": "",
                            "append": "",
                            "maxlength": ""
                        },
                        {
                            "key": "field_5ba0a94143239",
                            "label": "Baggrundsfarve",
                            "name": "bg",
                            "type": "select",
                            "instructions": "Vælg sektionens baggrundsfarve.",
                            "required": 0,
                            "conditional_logic": 0,
                            "wrapper": {
                                "width": "33.3",
                                "class": "",
                                "id": ""
                            },
                            "choices": {
                                "none": "Ingen"
                            },
                            "default_value": [
                                "none"
                            ],
                            "allow_null": 0,
                            "multiple": 0,
                            "ui": 0,
                            "return_format": "value",
                            "ajax": 0,
                            "placeholder": ""
                        },
                        {
                            "key": "field_5ba0a9414323a",
                            "label": "Margin",
                            "name": "margin",
                            "type": "select",
                            "instructions": "Vælg om sektionen skal have margin i top, bund, begge eller ingen.",
                            "required": 0,
                            "conditional_logic": 0,
                            "wrapper": {
                                "width": "33.3",
                                "class": "",
                                "id": ""
                            },
                            "choices": {
                                "none": "Ingen",
                                "top": "Top",
                                "bottom": "Bund",
                                "both": "Begge"
                            },
                            "default_value": [
                                "none"
                            ],
                            "allow_null": 0,
                            "multiple": 0,
                            "ui": 0,
                            "return_format": "value",
                            "ajax": 0,
                            "placeholder": ""
                        },
                        {
                            "key": "field_5cb6164169ad7",
                            "label": "Border",
                            "name": "border",
                            "type": "select",
                            "instructions": "Vælg om sektionen skal have border i top, bund, begge eller ingen.",
                            "required": 0,
                            "conditional_logic": 0,
                            "wrapper": {
                                "width": "33.3",
                                "class": "",
                                "id": ""
                            },
                            "choices": {
                                "none": "Ingen",
                                "top": "Top",
                                "bottom": "Bund",
                                "both": "Begge"
                            },
                            "default_value": [
                                "none"
                            ],
                            "allow_null": 0,
                            "multiple": 0,
                            "ui": 0,
                            "return_format": "value",
                            "ajax": 0,
                            "placeholder": ""
                        },
                        {
                            "key": "field_5ba0aa164323f",
                            "label": "Solutions",
                            "name": "",
                            "type": "tab",
                            "instructions": "",
                            "required": 0,
                            "conditional_logic": 0,
                            "wrapper": {
                                "width": "",
                                "class": "",
                                "id": ""
                            },
                            "placement": "top",
                            "endpoint": 0
                        },
                        {
                            "key": "field_5ba0a9414323b",
                            "label": "Solutions",
                            "name": "linkbox",
                            "type": "repeater",
                            "instructions": "",
                            "required": 0,
                            "conditional_logic": 0,
                            "wrapper": {
                                "width": "",
                                "class": "",
                                "id": ""
                            },
                            "collapsed": "",
                            "min": 0,
                            "max": 0,
                            "layout": "block",
                            "button_label": "Tilføj Link boxes",
                            "sub_fields": [
                                {
                                    "key": "field_5ba0b6202589d",
                                    "label": "Ikon\/billede (valgfri)",
                                    "name": "icon",
                                    "type": "image",
                                    "instructions": "",
                                    "required": 0,
                                    "conditional_logic": 0,
                                    "wrapper": {
                                        "width": "",
                                        "class": "",
                                        "id": ""
                                    },
                                    "return_format": "array",
                                    "preview_size": "thumbnail",
                                    "library": "all",
                                    "min_width": "",
                                    "min_height": "",
                                    "min_size": "",
                                    "max_width": "",
                                    "max_height": "",
                                    "max_size": "",
                                    "mime_types": ""
                                },
                                {
                                    "key": "field_5ba0a9414323c",
                                    "label": "Overskrift",
                                    "name": "title",
                                    "type": "text",
                                    "instructions": "",
                                    "required": 0,
                                    "conditional_logic": 0,
                                    "wrapper": {
                                        "width": "",
                                        "class": "",
                                        "id": ""
                                    },
                                    "default_value": "",
                                    "placeholder": "",
                                    "prepend": "",
                                    "append": "",
                                    "maxlength": ""
                                },
                                {
                                    "key": "field_5ba0a9d04323d",
                                    "label": "Text",
                                    "name": "text",
                                    "type": "wysiwyg",
                                    "instructions": "",
                                    "required": 0,
                                    "conditional_logic": 0,
                                    "wrapper": {
                                        "width": "",
                                        "class": "",
                                        "id": ""
                                    },
                                    "default_value": "",
                                    "tabs": "all",
                                    "toolbar": "full",
                                    "media_upload": 0,
                                    "delay": 0
                                },
                                {
                                    "key": "field_5c7e68743d3df",
                                    "label": "Custom class",
                                    "name": "class",
                                    "type": "text",
                                    "instructions": "Tilføj en custom class til denne row.",
                                    "required": 0,
                                    "conditional_logic": 0,
                                    "wrapper": {
                                        "width": "",
                                        "class": "",
                                        "id": ""
                                    },
                                    "default_value": "",
                                    "placeholder": "",
                                    "prepend": "",
                                    "append": "",
                                    "maxlength": ""
                                }
                            ]
                        }
                    ],
                    "min": "",
                    "max": ""
                },
                "layout_5cb5cdca91e65": {
                    "key": "layout_5cb5cdca91e65",
                    "name": "ad_examples",
                    "label": "Audio branding examples",
                    "display": "block",
                    "sub_fields": [
                        {
                            "key": "field_5cb5cdca91e66",
                            "label": "Sektions indstillinger",
                            "name": "",
                            "type": "tab",
                            "instructions": "",
                            "required": 0,
                            "conditional_logic": 0,
                            "wrapper": {
                                "width": "",
                                "class": "",
                                "id": ""
                            },
                            "placement": "top",
                            "endpoint": 0
                        },
                        {
                            "key": "field_5cb5cdca91e67",
                            "label": "Overskrift",
                            "name": "header",
                            "type": "text",
                            "instructions": "",
                            "required": 0,
                            "conditional_logic": 0,
                            "wrapper": {
                                "width": "",
                                "class": "",
                                "id": ""
                            },
                            "default_value": "",
                            "placeholder": "",
                            "prepend": "",
                            "append": "",
                            "maxlength": ""
                        },
                        {
                            "key": "field_5cb5cdca91e68",
                            "label": "Baggrundsfarve",
                            "name": "bg",
                            "type": "select",
                            "instructions": "Vælg sektionens baggrundsfarve.",
                            "required": 0,
                            "conditional_logic": 0,
                            "wrapper": {
                                "width": "33.3",
                                "class": "",
                                "id": ""
                            },
                            "choices": {
                                "none": "Ingen"
                            },
                            "default_value": [
                                "none"
                            ],
                            "allow_null": 0,
                            "multiple": 0,
                            "ui": 0,
                            "return_format": "value",
                            "ajax": 0,
                            "placeholder": ""
                        },
                        {
                            "key": "field_5cb5cdca91e69",
                            "label": "Margin",
                            "name": "margin",
                            "type": "select",
                            "instructions": "Vælg om sektionen skal have margin i top, bund, begge eller ingen.",
                            "required": 0,
                            "conditional_logic": 0,
                            "wrapper": {
                                "width": "33.3",
                                "class": "",
                                "id": ""
                            },
                            "choices": {
                                "none": "Ingen",
                                "top": "Top",
                                "bottom": "Bund",
                                "both": "Begge"
                            },
                            "default_value": [
                                "none"
                            ],
                            "allow_null": 0,
                            "multiple": 0,
                            "ui": 0,
                            "return_format": "value",
                            "ajax": 0,
                            "placeholder": ""
                        },
                        {
                            "key": "field_5cb61722b0660",
                            "label": "Border",
                            "name": "border",
                            "type": "select",
                            "instructions": "Vælg om sektionen skal have border i top, bund, begge eller ingen.",
                            "required": 0,
                            "conditional_logic": 0,
                            "wrapper": {
                                "width": "33.3",
                                "class": "",
                                "id": ""
                            },
                            "choices": {
                                "none": "Ingen",
                                "top": "Top",
                                "bottom": "Bund",
                                "both": "Begge"
                            },
                            "default_value": [
                                "none"
                            ],
                            "allow_null": 0,
                            "multiple": 0,
                            "ui": 0,
                            "return_format": "value",
                            "ajax": 0,
                            "placeholder": ""
                        },
                        {
                            "key": "field_5cb5cdca91e6a",
                            "label": "Audio branding examples",
                            "name": "",
                            "type": "tab",
                            "instructions": "",
                            "required": 0,
                            "conditional_logic": 0,
                            "wrapper": {
                                "width": "",
                                "class": "",
                                "id": ""
                            },
                            "placement": "top",
                            "endpoint": 0
                        },
                        {
                            "key": "field_5cb5cdca91e6b",
                            "label": "Audio branding examples",
                            "name": "examples",
                            "type": "repeater",
                            "instructions": "",
                            "required": 0,
                            "conditional_logic": 0,
                            "wrapper": {
                                "width": "",
                                "class": "",
                                "id": ""
                            },
                            "collapsed": "",
                            "min": 0,
                            "max": 0,
                            "layout": "block",
                            "button_label": "Tilføj Examples",
                            "sub_fields": [
                                {
                                    "key": "field_5cb5cdca91e6d",
                                    "label": "Overskrift",
                                    "name": "title",
                                    "type": "text",
                                    "instructions": "",
                                    "required": 0,
                                    "conditional_logic": 0,
                                    "wrapper": {
                                        "width": "",
                                        "class": "",
                                        "id": ""
                                    },
                                    "default_value": "",
                                    "placeholder": "",
                                    "prepend": "",
                                    "append": "",
                                    "maxlength": ""
                                },
                                {
                                    "key": "field_5cb5cdcb91e6e",
                                    "label": "Text",
                                    "name": "text",
                                    "type": "textarea",
                                    "instructions": "",
                                    "required": 0,
                                    "conditional_logic": 0,
                                    "wrapper": {
                                        "width": "",
                                        "class": "",
                                        "id": ""
                                    },
                                    "default_value": "",
                                    "placeholder": "",
                                    "maxlength": "",
                                    "rows": "",
                                    "new_lines": ""
                                },
                                {
                                    "key": "field_5cb5cdcb91e6f",
                                    "label": "Audio fil",
                                    "name": "file",
                                    "type": "file",
                                    "instructions": "",
                                    "required": 0,
                                    "conditional_logic": 0,
                                    "wrapper": {
                                        "width": "",
                                        "class": "",
                                        "id": ""
                                    },
                                    "return_format": "url",
                                    "library": "all",
                                    "min_size": "",
                                    "max_size": "",
                                    "mime_types": ""
                                }
                            ]
                        }
                    ],
                    "min": "",
                    "max": ""
                },
                "layout_5cb5ddfb6718a": {
                    "key": "layout_5cb5ddfb6718a",
                    "name": "employees",
                    "label": "Medarbejdere",
                    "display": "block",
                    "sub_fields": [
                        {
                            "key": "field_5cb5ddfb6718b",
                            "label": "Sektions indstillinger",
                            "name": "",
                            "type": "tab",
                            "instructions": "",
                            "required": 0,
                            "conditional_logic": 0,
                            "wrapper": {
                                "width": "",
                                "class": "",
                                "id": ""
                            },
                            "placement": "top",
                            "endpoint": 0
                        },
                        {
                            "key": "field_5cb5ddfb6718c",
                            "label": "Overskrift",
                            "name": "header",
                            "type": "text",
                            "instructions": "",
                            "required": 0,
                            "conditional_logic": 0,
                            "wrapper": {
                                "width": "",
                                "class": "",
                                "id": ""
                            },
                            "default_value": "",
                            "placeholder": "",
                            "prepend": "",
                            "append": "",
                            "maxlength": ""
                        },
                        {
                            "key": "field_5cb5ddfb6718d",
                            "label": "Baggrundsfarve",
                            "name": "bg",
                            "type": "select",
                            "instructions": "Vælg sektionens baggrundsfarve.",
                            "required": 0,
                            "conditional_logic": 0,
                            "wrapper": {
                                "width": "33.3",
                                "class": "",
                                "id": ""
                            },
                            "choices": {
                                "none": "Ingen"
                            },
                            "default_value": [
                                "none"
                            ],
                            "allow_null": 0,
                            "multiple": 0,
                            "ui": 0,
                            "return_format": "value",
                            "ajax": 0,
                            "placeholder": ""
                        },
                        {
                            "key": "field_5cb5ddfb6718e",
                            "label": "Margin",
                            "name": "margin",
                            "type": "select",
                            "instructions": "Vælg om sektionen skal have margin i top, bund, begge eller ingen.",
                            "required": 0,
                            "conditional_logic": 0,
                            "wrapper": {
                                "width": "33.3",
                                "class": "",
                                "id": ""
                            },
                            "choices": {
                                "none": "Ingen",
                                "top": "Top",
                                "bottom": "Bund",
                                "both": "Begge"
                            },
                            "default_value": [
                                "none"
                            ],
                            "allow_null": 0,
                            "multiple": 0,
                            "ui": 0,
                            "return_format": "value",
                            "ajax": 0,
                            "placeholder": ""
                        },
                        {
                            "key": "field_5cb6174bb0661",
                            "label": "Border",
                            "name": "border",
                            "type": "select",
                            "instructions": "Vælg om sektionen skal have border i top, bund, begge eller ingen.",
                            "required": 0,
                            "conditional_logic": 0,
                            "wrapper": {
                                "width": "33.3",
                                "class": "",
                                "id": ""
                            },
                            "choices": {
                                "none": "Ingen",
                                "top": "Top",
                                "bottom": "Bund",
                                "both": "Begge"
                            },
                            "default_value": [
                                "none"
                            ],
                            "allow_null": 0,
                            "multiple": 0,
                            "ui": 0,
                            "return_format": "value",
                            "ajax": 0,
                            "placeholder": ""
                        },
                        {
                            "key": "field_5cb5ddfb6718f",
                            "label": "Medarbejdere",
                            "name": "",
                            "type": "tab",
                            "instructions": "",
                            "required": 0,
                            "conditional_logic": 0,
                            "wrapper": {
                                "width": "",
                                "class": "",
                                "id": ""
                            },
                            "placement": "top",
                            "endpoint": 0
                        },
                        {
                            "key": "field_5cb5de5867195",
                            "label": "Afdeling",
                            "name": "employees_department",
                            "type": "text",
                            "instructions": "",
                            "required": 0,
                            "conditional_logic": 0,
                            "wrapper": {
                                "width": "",
                                "class": "",
                                "id": ""
                            },
                            "default_value": "",
                            "placeholder": "",
                            "prepend": "",
                            "append": "",
                            "maxlength": ""
                        },
                        {
                            "key": "field_5cb5ddfb67190",
                            "label": "Medarbejdere",
                            "name": "employees",
                            "type": "repeater",
                            "instructions": "",
                            "required": 0,
                            "conditional_logic": 0,
                            "wrapper": {
                                "width": "",
                                "class": "",
                                "id": ""
                            },
                            "collapsed": "",
                            "min": 0,
                            "max": 0,
                            "layout": "block",
                            "button_label": "Tilføj Medarbejdere",
                            "sub_fields": [
                                {
                                    "key": "field_5cb5de3267194",
                                    "label": "Billede",
                                    "name": "img",
                                    "type": "image",
                                    "instructions": "",
                                    "required": 0,
                                    "conditional_logic": 0,
                                    "wrapper": {
                                        "width": "50",
                                        "class": "",
                                        "id": ""
                                    },
                                    "return_format": "array",
                                    "preview_size": "thumbnail",
                                    "library": "all",
                                    "min_width": "",
                                    "min_height": "",
                                    "min_size": "",
                                    "max_width": "",
                                    "max_height": "",
                                    "max_size": "",
                                    "mime_types": ""
                                },
                                {
                                    "key": "field_5cb5ddfb67192",
                                    "label": "Text",
                                    "name": "text",
                                    "type": "wysiwyg",
                                    "instructions": "",
                                    "required": 0,
                                    "conditional_logic": 0,
                                    "wrapper": {
                                        "width": "50",
                                        "class": "",
                                        "id": ""
                                    },
                                    "default_value": "",
                                    "tabs": "all",
                                    "toolbar": "basic",
                                    "media_upload": 0,
                                    "delay": 0
                                }
                            ]
                        }
                    ],
                    "min": "",
                    "max": ""
                },
                "layout_5cb63025892c3": {
                    "key": "layout_5cb63025892c3",
                    "name": "mac_lookup",
                    "label": "MAC adress lookup",
                    "display": "block",
                    "sub_fields": [
                        {
                            "key": "field_5cb63025892c4",
                            "label": "Sektions indstillinger",
                            "name": "",
                            "type": "tab",
                            "instructions": "",
                            "required": 0,
                            "conditional_logic": 0,
                            "wrapper": {
                                "width": "",
                                "class": "",
                                "id": ""
                            },
                            "placement": "top",
                            "endpoint": 0
                        },
                        {
                            "key": "field_5cb63025892c5",
                            "label": "Overskrift",
                            "name": "header",
                            "type": "text",
                            "instructions": "",
                            "required": 0,
                            "conditional_logic": 0,
                            "wrapper": {
                                "width": "",
                                "class": "",
                                "id": ""
                            },
                            "default_value": "",
                            "placeholder": "",
                            "prepend": "",
                            "append": "",
                            "maxlength": ""
                        },
                        {
                            "key": "field_5cb63025892c6",
                            "label": "Baggrundsfarve",
                            "name": "bg",
                            "type": "select",
                            "instructions": "Vælg sektionens baggrundsfarve.",
                            "required": 0,
                            "conditional_logic": 0,
                            "wrapper": {
                                "width": "33.3",
                                "class": "",
                                "id": ""
                            },
                            "choices": {
                                "none": "Ingen"
                            },
                            "default_value": [
                                "none"
                            ],
                            "allow_null": 0,
                            "multiple": 0,
                            "ui": 0,
                            "ajax": 0,
                            "return_format": "value",
                            "placeholder": ""
                        },
                        {
                            "key": "field_5cb63025892c7",
                            "label": "Margin",
                            "name": "margin",
                            "type": "select",
                            "instructions": "Vælg om sektionen skal have margin i top, bund, begge eller ingen.",
                            "required": 0,
                            "conditional_logic": 0,
                            "wrapper": {
                                "width": "33.3",
                                "class": "",
                                "id": ""
                            },
                            "choices": {
                                "none": "Ingen",
                                "top": "Top",
                                "bottom": "Bund",
                                "both": "Begge"
                            },
                            "default_value": [
                                "none"
                            ],
                            "allow_null": 0,
                            "multiple": 0,
                            "ui": 0,
                            "ajax": 0,
                            "return_format": "value",
                            "placeholder": ""
                        },
                        {
                            "key": "field_5cb63025892c8",
                            "label": "Border",
                            "name": "border",
                            "type": "select",
                            "instructions": "Vælg om sektionen skal have border i top, bund, begge eller ingen.",
                            "required": 0,
                            "conditional_logic": 0,
                            "wrapper": {
                                "width": "33.3",
                                "class": "",
                                "id": ""
                            },
                            "choices": {
                                "none": "Ingen",
                                "top": "Top",
                                "bottom": "Bund",
                                "both": "Begge"
                            },
                            "default_value": [
                                "none"
                            ],
                            "allow_null": 0,
                            "multiple": 0,
                            "ui": 0,
                            "ajax": 0,
                            "return_format": "value",
                            "placeholder": ""
                        },
                        {
                            "key": "field_5cb63025892c9",
                            "label": "MAC adress lookup",
                            "name": "",
                            "type": "tab",
                            "instructions": "",
                            "required": 0,
                            "conditional_logic": 0,
                            "wrapper": {
                                "width": "",
                                "class": "",
                                "id": ""
                            },
                            "placement": "top",
                            "endpoint": 0
                        },
                        {
                            "key": "field_5cb63058892ce",
                            "label": "Indhold",
                            "name": "",
                            "type": "message",
                            "instructions": "",
                            "required": 0,
                            "conditional_logic": 0,
                            "wrapper": {
                                "width": "",
                                "class": "",
                                "id": ""
                            },
                            "message": "Denne sektion henter MAC adresse lookup funktionen.",
                            "new_lines": "wpautop",
                            "esc_html": 0
                        }
                    ],
                    "min": "",
                    "max": ""
                }
            },
            "button_label": "Tilføj Layout",
            "min": "",
            "max": ""
        }
    ],
    "location": [
        [
            {
                "param": "page_template",
                "operator": "==",
                "value": "page-layouts.php"
            }
        ],
        [
            {
                "param": "page_template",
                "operator": "==",
                "value": "support.php"
            }
        ]
    ],
    "menu_order": 1,
    "position": "normal",
    "style": "seamless",
    "label_placement": "top",
    "instruction_placement": "label",
    "hide_on_screen": [
        "the_content",
        "excerpt",
        "discussion",
        "comments",
        "revisions",
        "slug",
        "author",
        "format",
        "featured_image",
        "categories",
        "tags",
        "send-trackbacks"
    ],
    "active": 1,
    "description": "",
    "modified": 1557480123
}